<?xml version="1.0" encoding="UTF-8"?>
<svg xmlns="http://www.w3.org/2000/svg" xmlns:xlink="http://www.w3.org/1999/xlink" width="32pt" height="32pt" viewBox="0 0 32 32" version="1.1">
<defs>
<linearGradient id="linear0" gradientUnits="userSpaceOnUse" x1="0" y1="0" x2="1" y2="0" gradientTransform="matrix(32,0,0,32,0,0)">
<stop offset="0" style="stop-color:rgb(100%,100%,100%);stop-opacity:1;"/>
<stop offset="1" style="stop-color:rgb(100%,100%,100%);stop-opacity:1;"/>
</linearGradient>
</defs>
<g id="surface1">
<path style=" stroke:none;fill-rule:evenodd;fill:url(#linear0);" d="M 14.375 12 C 14.117188 11.996094 13.882812 12.144531 13.78125 12.378906 C 13.679688 12.613281 13.730469 12.882812 13.910156 13.0625 C 14.09375 13.242188 14.367188 13.300781 14.605469 13.203125 C 14.84375 13.105469 15 12.878906 15 12.625 C 15 12.28125 14.722656 12.003906 14.375 12 Z M 14.375 19.5 C 14.117188 19.496094 13.882812 19.644531 13.78125 19.878906 C 13.679688 20.113281 13.730469 20.382812 13.910156 20.5625 C 14.09375 20.742188 14.367188 20.800781 14.605469 20.703125 C 14.84375 20.605469 15 20.378906 15 20.125 C 15 19.78125 14.722656 19.503906 14.375 19.5 Z M 14.375 27 C 14.117188 26.996094 13.882812 27.144531 13.78125 27.378906 C 13.679688 27.613281 13.730469 27.882812 13.910156 28.0625 C 14.09375 28.242188 14.367188 28.300781 14.605469 28.203125 C 14.84375 28.105469 15 27.878906 15 27.625 C 15 27.28125 14.722656 27.003906 14.375 27 Z M 26.375 10.75 C 25.601562 10.738281 24.898438 11.1875 24.59375 11.886719 C 24.289062 12.585938 24.445312 13.398438 24.988281 13.941406 C 25.53125 14.480469 26.351562 14.648438 27.066406 14.359375 C 27.78125 14.070312 28.25 13.386719 28.25 12.625 C 28.257812 11.597656 27.417969 10.757812 26.375 10.75 Z M 26.375 13.25 C 26.117188 13.253906 25.882812 13.105469 25.78125 12.871094 C 25.679688 12.636719 25.730469 12.367188 25.910156 12.1875 C 26.09375 12.007812 26.367188 11.949219 26.605469 12.046875 C 26.84375 12.144531 27 12.371094 27 12.625 C 27 12.96875 26.722656 13.246094 26.375 13.25 Z M 6.875 12 L 4.375 12 C 4.023438 12 3.738281 12.28125 3.738281 12.625 C 3.738281 12.96875 4.023438 13.25 4.375 13.25 L 6.875 13.25 C 7.226562 13.25 7.507812 12.96875 7.507812 12.625 C 7.507812 12.28125 7.226562 12 6.875 12 Z M 11.875 12 L 9.375 12 C 9.023438 12 8.738281 12.28125 8.738281 12.625 C 8.738281 12.96875 9.023438 13.25 9.375 13.25 L 11.875 13.25 C 12.226562 13.25 12.507812 12.96875 12.507812 12.625 C 12.511719 12.28125 12.226562 12 11.875 12 Z M 26.375 18.25 C 25.601562 18.238281 24.898438 18.6875 24.59375 19.386719 C 24.289062 20.085938 24.445312 20.898438 24.988281 21.441406 C 25.53125 21.980469 26.351562 22.148438 27.066406 21.859375 C 27.78125 21.570312 28.25 20.886719 28.25 20.125 C 28.257812 19.097656 27.417969 18.257812 26.375 18.25 Z M 26.375 20.75 C 26.117188 20.753906 25.882812 20.605469 25.78125 20.371094 C 25.679688 20.136719 25.730469 19.867188 25.910156 19.6875 C 26.09375 19.507812 26.367188 19.449219 26.605469 19.546875 C 26.84375 19.644531 27 19.871094 27 20.125 C 27 20.46875 26.722656 20.746094 26.375 20.75 Z M 6.875 19.5 L 4.375 19.5 C 4.023438 19.5 3.738281 19.78125 3.738281 20.125 C 3.738281 20.46875 4.023438 20.75 4.375 20.75 L 6.875 20.75 C 7.226562 20.75 7.507812 20.46875 7.507812 20.125 C 7.507812 19.78125 7.226562 19.5 6.875 19.5 Z M 11.875 19.5 L 9.375 19.5 C 9.023438 19.5 8.738281 19.78125 8.738281 20.125 C 8.738281 20.46875 9.023438 20.75 9.375 20.75 L 11.875 20.75 C 12.226562 20.75 12.507812 20.46875 12.507812 20.125 C 12.511719 19.78125 12.226562 19.5 11.875 19.5 Z M 26.375 25.75 C 25.601562 25.738281 24.898438 26.1875 24.59375 26.886719 C 24.289062 27.585938 24.445312 28.398438 24.988281 28.941406 C 25.53125 29.480469 26.351562 29.648438 27.066406 29.359375 C 27.78125 29.070312 28.25 28.386719 28.25 27.625 C 28.257812 26.597656 27.417969 25.757812 26.375 25.75 Z M 26.375 28.25 C 26.117188 28.253906 25.882812 28.105469 25.78125 27.871094 C 25.679688 27.636719 25.730469 27.367188 25.910156 27.1875 C 26.09375 27.007812 26.367188 26.949219 26.605469 27.046875 C 26.84375 27.144531 27 27.371094 27 27.625 C 27 27.96875 26.722656 28.246094 26.375 28.25 Z M 32 9.761719 C 32 9.085938 31.84375 8.421875 31.542969 7.816406 L 28.539062 1.058594 C 28.535156 1.050781 28.53125 1.042969 28.527344 1.035156 C 28.21875 0.402344 27.566406 0 26.851562 0 L 5.148438 0 C 4.433594 0 3.78125 0.402344 3.472656 1.035156 C 3.46875 1.042969 3.464844 1.050781 3.460938 1.058594 L 0.457031 7.816406 C 0.15625 8.421875 0 9.085938 0 9.761719 L 0 15.125 C 0.636719 15.839844 0.636719 16.910156 0 17.625 L 0 22.625 C 0.636719 23.339844 0.636719 24.410156 0 25.125 L 0 30.125 C -0.0078125 31.152344 0.832031 31.992188 1.875 32 L 30.125 32 C 31.167969 31.992188 32.007812 31.152344 32 30.125 L 32 25.125 C 31.359375 24.410156 31.359375 23.339844 32 22.625 L 32 17.625 C 31.359375 16.910156 31.359375 15.839844 32 15.125 Z M 4.59375 1.585938 C 4.699219 1.378906 4.914062 1.25 5.148438 1.25 L 26.851562 1.25 C 27.085938 1.25 27.300781 1.378906 27.40625 1.585938 L 30.371094 8.25 L 1.628906 8.25 Z M 30.753906 30.125 C 30.753906 30.46875 30.476562 30.746094 30.128906 30.75 L 1.875 30.75 C 1.527344 30.746094 1.246094 30.46875 1.25 30.125 L 1.25 25.125 C 1.246094 24.78125 1.527344 24.503906 1.875 24.5 L 30.125 24.5 C 30.472656 24.503906 30.753906 24.78125 30.75 25.125 L 30.75 30.125 Z M 30.753906 22.625 C 30.753906 22.96875 30.476562 23.246094 30.128906 23.25 L 1.875 23.25 C 1.527344 23.246094 1.246094 22.96875 1.25 22.625 L 1.25 17.625 C 1.246094 17.28125 1.527344 17.003906 1.875 17 L 30.125 17 C 30.472656 17.003906 30.753906 17.28125 30.75 17.625 L 30.75 22.625 Z M 30.753906 15.125 C 30.753906 15.46875 30.476562 15.746094 30.128906 15.75 L 1.875 15.75 C 1.527344 15.746094 1.246094 15.46875 1.25 15.125 L 1.25 9.761719 C 1.25 9.675781 1.253906 9.585938 1.261719 9.5 L 30.738281 9.5 C 30.746094 9.585938 30.75 9.675781 30.75 9.761719 L 30.75 15.125 Z M 6.878906 27 L 4.378906 27 C 4.027344 27 3.746094 27.28125 3.746094 27.625 C 3.746094 27.96875 4.027344 28.25 4.378906 28.25 L 6.878906 28.25 C 7.230469 28.25 7.511719 27.96875 7.511719 27.621094 C 7.511719 27.277344 7.226562 27 6.875 27 Z M 11.878906 27 L 9.378906 27 C 9.027344 27 8.746094 27.28125 8.746094 27.625 C 8.746094 27.96875 9.027344 28.25 9.378906 28.25 L 11.878906 28.25 C 12.230469 28.25 12.511719 27.96875 12.511719 27.621094 C 12.511719 27.277344 12.226562 27 11.875 27 Z M 11.878906 27 "/>
</g>
</svg>

